Vignette - Regression Shrinkage Methods
…
hitters_recipe <- recipe(salary ~ . , data = hitters_train) %>% 
  step_dummy(all_nominal_predictors()) %>% 
  step_normalize(all_predictors()) %>% 
  step_impute_linear(salary, 
                     impute_with = imp_vars(c_hits, c_runs, crbi, c_walks, 
                                            c_at_bat), skip = TRUE) %>% 
  step_pca(hits, hm_run, runs, rbi, walks, 
           num_comp = 1, prefix = "first_pc") %>% 
  step_pca(years, c_hits, c_runs, crbi, c_walks, c_at_bat,
           num_comp = 1, prefix = "second_pc")

prep(hitters_recipe) %>% bake(new_data = hitters_train)

# A tibble: 255 × 11
   at_bat c_hm_run put_outs assists errors salary league_N division_W
    <dbl>    <dbl>    <dbl>   <dbl>  <dbl>  <dbl>    <dbl>      <dbl>
 1 -0.518   -0.795  -0.605    1.23   0.122  100     -0.912      0.979
 2 -0.360   -0.725  -0.527    1.28   1.64    75      1.09       0.979
 3 -1.20    -0.737  -0.672    0.480  1.19   175     -0.912      0.979
 4 -1.60    -0.516  -0.320   -0.619 -0.944  135      1.09       0.979
 5  0.208   -0.609  -0.0449  -0.711 -0.487  100      1.09      -1.02 
 6  0.290   -0.760   0.240   -0.619 -0.944  115     -0.912      0.979
 7 -0.707   -0.737   0.525   -0.356 -0.335   90      1.09       0.979
 8 -1.26    -0.749   0.117   -0.569 -0.487   67.5   -0.912     -1.02 
 9 -1.04    -0.260  -0.668   -0.179 -0.487   NA      1.09       0.979
10 -1.03    -0.423   0.0501  -0.597 -1.10   180     -0.912     -1.02 
# ℹ 245 more rows
# ℹ 3 more variables: new_league_N <dbl>, first_pc1 <dbl>, second_pc1 <dbl>
…
Observing the plot above, we notice that the scale of the y-axis for both metrics is relatively small. This indicates that the resulting performance doesn’t really vary drastically across any of the models we’ve fit. The amount of regularization, on the x-axis, is the penalty hyperparameter, which covers the range of values we specified (zero to one), and the values of mixture are represented by the different-colored lines.

Overall, the models with zero percentage of lasso penalty, or the ridge regression models, do better, as indicated by the red line being consistently higher (or lower) than the others. This implies that it yields better performance to avoid reducing predictors all the way down to zero, as can happen in the case of lasso regression. Models with some non-zero proportion of lasso start to do slightly better as the penalty value increases, although still their performance is not near the level of ridge regression.

Model Selection

The “best” values of these can be selected using select_best(), or using any variation on that function like select_by_one_std_error(), etc. These functions require you to specify a metric that it should use to select, in this case we’ll use the rmse.

(enet_hitters_metrics <- collect_metrics(tune_res_hitters))

# A tibble: 200 × 8
   penalty mixture .metric .estimator    mean     n std_err .config             
     <dbl>   <dbl> <chr>   <chr>        <dbl> <int>   <dbl> <chr>               
 1   0           0 rmse    standard   321.       10 31.9    Preprocessor1_Model…
 2   0           0 rsq     standard     0.501    10  0.0577 Preprocessor1_Model…
 3   0.111       0 rmse    standard   321.       10 31.9    Preprocessor1_Model…
 4   0.111       0 rsq     standard     0.501    10  0.0577 Preprocessor1_Model…
 5   0.222       0 rmse    standard   321.       10 31.9    Preprocessor1_Model…
 6   0.222       0 rsq     standard     0.501    10  0.0577 Preprocessor1_Model…
 7   0.333       0 rmse    standard   321.       10 31.9    Preprocessor1_Model…
 8   0.333       0 rsq     standard     0.501    10  0.0577 Preprocessor1_Model…
 9   0.444       0 rmse    standard   321.       10 31.9    Preprocessor1_Model…
10   0.444       0 rsq     standard     0.501    10  0.0577 Preprocessor1_Model…
# ℹ 190 more rows
…
